CONPAR/simulation/qsim/CONPAR.msim.vcd
$comment
	File created using the following command:
		vcd file CONPAR.msim.vcd -direction
$end
$date
	Tue Apr 18 19:01:38 2023
$end
$version
	ModelSim Version 10.1d
$end
$timescale
	1ps
$end
$scope module CONPAR_vlg_vec_tst $end
$var reg 1 ! clock $end
$var reg 1 " EN $end
$var reg 1 # reset $end
$var reg 1 $ start $end
$var wire 1 % count [5] $end
$var wire 1 & count [4] $end
$var wire 1 ' count [3] $end
$var wire 1 ( count [2] $end
$var wire 1 ) count [1] $end
$var wire 1 * count [0] $end
$var wire 1 + d1 [6] $end
$var wire 1 , d1 [5] $end
$var wire 1 - d1 [4] $end
$var wire 1 . d1 [3] $end
$var wire 1 / d1 [2] $end
$var wire 1 0 d1 [1] $end
$var wire 1 1 d1 [0] $end
$var wire 1 2 DEC [6] $end
$var wire 1 3 DEC [5] $end
$var wire 1 4 DEC [4] $end
$var wire 1 5 DEC [3] $end
$var wire 1 6 DEC [2] $end
$var wire 1 7 DEC [1] $end
$var wire 1 8 DEC [0] $end
$var wire 1 9 L $end
$var wire 1 : sampler $end
$scope module i1 $end
$var wire 1 ; gnd $end
$var wire 1 < vcc $end
$var wire 1 = unknown $end
$var tri1 1 > devclrn $end
$var tri1 1 ? devpor $end
$var tri1 1 @ devoe $end
$var wire 1 A start~input_o $end
$var wire 1 B count[0]~output_o $end
$var wire 1 C count[1]~output_o $end
$var wire 1 D count[2]~output_o $end
$var wire 1 E count[3]~output_o $end
$var wire 1 F count[4]~output_o $end
$var wire 1 G count[5]~output_o $end
$var wire 1 H L~output_o $end
$var wire 1 I d1[0]~output_o $end
$var wire 1 J d1[1]~output_o $end
$var wire 1 K d1[2]~output_o $end
$var wire 1 L d1[3]~output_o $end
$var wire 1 M d1[4]~output_o $end
$var wire 1 N d1[5]~output_o $end
$var wire 1 O d1[6]~output_o $end
$var wire 1 P DEC[0]~output_o $end
$var wire 1 Q DEC[1]~output_o $end
$var wire 1 R DEC[2]~output_o $end
$var wire 1 S DEC[3]~output_o $end
$var wire 1 T DEC[4]~output_o $end
$var wire 1 U DEC[5]~output_o $end
$var wire 1 V DEC[6]~output_o $end
$var wire 1 W clock~input_o $end
$var wire 1 X clock~inputclkctrl_outclk $end
$var wire 1 Y Add0~0_combout $end
$var wire 1 Z reset~input_o $end
$var wire 1 [ reset~inputclkctrl_outclk $end
$var wire 1 \ EN~input_o $end
$var wire 1 ] Add0~1 $end
$var wire 1 ^ Add0~3 $end
$var wire 1 _ Add0~4_combout $end
$var wire 1 ` cnt_int~1_combout $end
$var wire 1 a Add0~5 $end
$var wire 1 b Add0~6_combout $end
$var wire 1 c cnt_int~2_combout $end
$var wire 1 d Add0~7 $end
$var wire 1 e Add0~8_combout $end
$var wire 1 f cnt_int~3_combout $end
$var wire 1 g Add0~9 $end
$var wire 1 h Add0~10_combout $end
$var wire 1 i cnt_int~4_combout $end
$var wire 1 j Equal0~0_combout $end
$var wire 1 k Add0~2_combout $end
$var wire 1 l cnt_int~0_combout $end
$var wire 1 m Equal0~1_combout $end
$var wire 1 n Mod0|auto_generated|divider|divider|add_sub_3_result_int[1]~1 $end
$var wire 1 o Mod0|auto_generated|divider|divider|add_sub_3_result_int[2]~3 $end
$var wire 1 p Mod0|auto_generated|divider|divider|add_sub_3_result_int[3]~5 $end
$var wire 1 q Mod0|auto_generated|divider|divider|add_sub_3_result_int[4]~6_combout $end
$var wire 1 r Mod0|auto_generated|divider|divider|add_sub_3_result_int[3]~4_combout $end
$var wire 1 s Mod0|auto_generated|divider|divider|StageOut[21]~25_combout $end
$var wire 1 t Mod0|auto_generated|divider|divider|StageOut[21]~24_combout $end
$var wire 1 u Mod0|auto_generated|divider|divider|add_sub_3_result_int[2]~2_combout $end
$var wire 1 v Mod0|auto_generated|divider|divider|StageOut[20]~27_combout $end
$var wire 1 w Mod0|auto_generated|divider|divider|StageOut[20]~26_combout $end
$var wire 1 x Mod0|auto_generated|divider|divider|StageOut[19]~28_combout $end
$var wire 1 y Mod0|auto_generated|divider|divider|add_sub_3_result_int[1]~0_combout $end
$var wire 1 z Mod0|auto_generated|divider|divider|StageOut[19]~29_combout $end
$var wire 1 { Mod0|auto_generated|divider|divider|StageOut[18]~30_combout $end
$var wire 1 | Mod0|auto_generated|divider|divider|StageOut[18]~31_combout $end
$var wire 1 } Mod0|auto_generated|divider|divider|add_sub_4_result_int[1]~1 $end
$var wire 1 ~ Mod0|auto_generated|divider|divider|add_sub_4_result_int[2]~3 $end
$var wire 1 !! Mod0|auto_generated|divider|divider|add_sub_4_result_int[3]~5 $end
$var wire 1 "! Mod0|auto_generated|divider|divider|add_sub_4_result_int[4]~7 $end
$var wire 1 #! Mod0|auto_generated|divider|divider|add_sub_4_result_int[5]~8_combout $end
$var wire 1 $! Mod0|auto_generated|divider|divider|add_sub_4_result_int[2]~2_combout $end
$var wire 1 %! Mod0|auto_generated|divider|divider|StageOut[26]~36_combout $end
$var wire 1 &! Mod0|auto_generated|divider|divider|StageOut[26]~45_combout $end
$var wire 1 '! Mod0|auto_generated|divider|divider|StageOut[25]~37_combout $end
$var wire 1 (! Mod0|auto_generated|divider|divider|add_sub_4_result_int[1]~0_combout $end
$var wire 1 )! Mod0|auto_generated|divider|divider|StageOut[25]~38_combout $end
$var wire 1 *! Mod0|auto_generated|divider|divider|StageOut[24]~32_combout $end
$var wire 1 +! Mod0|auto_generated|divider|divider|StageOut[24]~33_combout $end
$var wire 1 ,! Mod0|auto_generated|divider|divider|add_sub_5_result_int[1]~1 $end
$var wire 1 -! Mod0|auto_generated|divider|divider|add_sub_5_result_int[2]~3 $end
$var wire 1 .! Mod0|auto_generated|divider|divider|add_sub_5_result_int[3]~4_combout $end
$var wire 1 /! Mod0|auto_generated|divider|divider|StageOut[28]~43_combout $end
$var wire 1 0! Mod0|auto_generated|divider|divider|add_sub_4_result_int[4]~6_combout $end
$var wire 1 1! Mod0|auto_generated|divider|divider|StageOut[28]~34_combout $end
$var wire 1 2! Mod0|auto_generated|divider|divider|add_sub_4_result_int[3]~4_combout $end
$var wire 1 3! Mod0|auto_generated|divider|divider|StageOut[27]~35_combout $end
$var wire 1 4! Mod0|auto_generated|divider|divider|StageOut[27]~44_combout $end
$var wire 1 5! Mod0|auto_generated|divider|divider|add_sub_5_result_int[3]~5 $end
$var wire 1 6! Mod0|auto_generated|divider|divider|add_sub_5_result_int[4]~7 $end
$var wire 1 7! Mod0|auto_generated|divider|divider|add_sub_5_result_int[5]~9 $end
$var wire 1 8! Mod0|auto_generated|divider|divider|add_sub_5_result_int[6]~10_combout $end
$var wire 1 9! Mod0|auto_generated|divider|divider|StageOut[33]~41_combout $end
$var wire 1 :! Mod0|auto_generated|divider|divider|add_sub_5_result_int[2]~2_combout $end
$var wire 1 ;! Mod0|auto_generated|divider|divider|StageOut[32]~40_combout $end
$var wire 1 <! Mod0|auto_generated|divider|divider|add_sub_5_result_int[1]~0_combout $end
$var wire 1 =! Mod0|auto_generated|divider|divider|StageOut[31]~39_combout $end
$var wire 1 >! Mux6~0_combout $end
$var wire 1 ?! Mod0|auto_generated|divider|divider|StageOut[35]~42_combout $end
$var wire 1 @! Mod0|auto_generated|divider|divider|add_sub_5_result_int[4]~6_combout $end
$var wire 1 A! Mod0|auto_generated|divider|divider|add_sub_5_result_int[5]~8_combout $end
$var wire 1 B! Mux0~0_combout $end
$var wire 1 C! Mux0~1_combout $end
$var wire 1 D! Mux6~1_combout $end
$var wire 1 E! Mux5~0_combout $end
$var wire 1 F! Mux5~1_combout $end
$var wire 1 G! Mux4~0_combout $end
$var wire 1 H! Mux4~1_combout $end
$var wire 1 I! Mux3~0_combout $end
$var wire 1 J! Mux3~1_combout $end
$var wire 1 K! Mux2~0_combout $end
$var wire 1 L! Mux2~1_combout $end
$var wire 1 M! Mux1~0_combout $end
$var wire 1 N! Mux1~1_combout $end
$var wire 1 O! Mux0~2_combout $end
$var wire 1 P! Mux0~3_combout $end
$var wire 1 Q! LessThan1~0_combout $end
$var wire 1 R! DECIM~0_combout $end
$var wire 1 S! DEC~0_combout $end
$var wire 1 T! LessThan1~1_combout $end
$var wire 1 U! DECIM~1_combout $end
$var wire 1 V! DECIM~2_combout $end
$var wire 1 W! DEC~1_combout $end
$var wire 1 X! DECIM~3_combout $end
$var wire 1 Y! cnt_int [5] $end
$var wire 1 Z! cnt_int [4] $end
$var wire 1 [! cnt_int [3] $end
$var wire 1 \! cnt_int [2] $end
$var wire 1 ]! cnt_int [1] $end
$var wire 1 ^! cnt_int [0] $end
$upscope $end
$upscope $end
$enddefinitions $end
#0
$dumpvars
0!
0"
0#
1$
0*
0)
0(
0'
0&
0%
11
00
0/
0.
0-
0,
0+
18
07
06
05
04
03
02
19
x:
0;
1<
x=
1>
1?
1@
1A
0B
0C
0D
0E
0F
0G
1H
1I
0J
0K
0L
0M
0N
0O
1P
0Q
0R
0S
0T
0U
0V
0W
0X
1Y
0Z
0[
0\
0]
1^
1_
0`
0a
1b
0c
1d
1e
0f
0g
1h
0i
1j
1k
0l
1m
0n
1o
0p
1q
0r
0s
0t
1u
0v
0w
0x
1y
0z
0{
0|
0}
1~
0!!
1"!
1#!
1$!
0%!
0&!
0'!
1(!
0)!
0*!
0+!
0,!
1-!
0.!
0/!
10!
01!
02!
03!
04!
05!
16!
07!
18!
09!
1:!
0;!
1<!
0=!
0>!
0?!
1@!
1A!
1B!
1C!
1D!
0E!
0F!
0G!
0H!
0I!
0J!
0K!
0L!
0M!
0N!
0O!
0P!
0Q!
1R!
1S!
0T!
1U!
1V!
0W!
1X!
0^!
0]!
0\!
0[!
0Z!
0Y!
$end
#5000
1!
1W
1X
0:
#10000
0!
0W
0X
1:
#15000
1!
1W
1X
0:
#20000
0!
0W
0X
1:
#25000
1!
1W
1X
0:
#30000
0!
0W
0X
1:
#35000
1!
1W
1X
0:
#40000
0!
0W
0X
1:
#45000
1!
1W
1X
0:
#50000
0!
0W
0X
1:
#55000
1!
1W
1X
0:
#60000
0!
0W
0X
1:
#65000
1!
1W
1X
0:
#70000
0!
0W
0X
1:
#75000
1!
1W
1X
0:
#80000
0!
0W
0X
1:
#85000
1!
1W
1X
0:
#90000
0!
0W
0X
1:
#95000
1!
1W
1X
0:
#100000
0!
0W
0X
1:
#105000
1!
1W
1X
0:
#110000
0!
0W
0X
1:
#115000
1!
1W
1X
0:
#120000
0!
0W
0X
1:
#125000
1!
1W
1X
0:
#130000
0!
0W
0X
1:
#135000
1!
1W
1X
0:
#140000
0!
0W
0X
1:
#145000
1!
1W
1X
0:
#150000
0!
0W
0X
1:
#155000
1!
1W
1X
0:
#160000
0!
0W
0X
1:
#165000
1!
1W
1X
0:
#170000
0!
0W
0X
1:
#175000
1!
1W
1X
0:
#180000
0!
0W
0X
1:
#185000
1!
1W
1X
0:
#190000
0!
0W
0X
1:
#195000
1!
1W
1X
0:
#200000
0!
0W
0X
1:
#205000
1!
1W
1X
0:
#210000
0!
0W
0X
1:
#215000
1!
1W
1X
0:
#220000
0!
0W
0X
1:
#225000
1!
1W
1X
0:
#230000
0!
0W
0X
1:
#235000
1!
1W
1X
0:
#240000
0!
0W
0X
1:
#245000
1!
1W
1X
0:
#250000
0!
0W
0X
1:
#255000
1!
1W
1X
0:
#260000
0!
0W
0X
1:
#265000
1!
1W
1X
0:
#270000
0!
0W
0X
1:
#275000
1!
1W
1X
0:
#280000
0!
0W
0X
1:
#285000
1!
1W
1X
0:
#290000
0!
0W
0X
1:
#295000
1!
1W
1X
0:
#300000
0!
0W
0X
1:
#305000
1!
1W
1X
0:
#310000
0!
0W
0X
1:
#315000
1!
1W
1X
0:
#320000
0!
0W
0X
1:
#325000
1!
1W
1X
0:
#330000
0!
0W
0X
1:
#335000
1!
1W
1X
0:
#340000
0!
0W
0X
1:
#345000
1!
1W
1X
0:
#350000
0!
0W
0X
1:
#355000
1!
1W
1X
0:
#360000
0!
0W
0X
1:
#365000
1!
1W
1X
0:
#370000
0!
0W
0X
1:
#375000
1!
1W
1X
0:
#380000
0!
0W
0X
1:
#385000
1!
1W
1X
0:
#390000
0!
0W
0X
1:
#395000
1!
1W
1X
0:
#400000
0!
0W
0X
1:
#405000
1!
1W
1X
0:
#410000
0!
0W
0X
1:
#415000
1!
1W
1X
0:
#420000
0!
0W
0X
1:
#425000
1!
1W
1X
0:
#430000
0!
0W
0X
1:
#435000
1!
1W
1X
0:
#440000
0!
0W
0X
1:
#445000
1!
1W
1X
0:
#450000
0!
0W
0X
1:
#455000
1!
1W
1X
0:
#460000
0!
0W
0X
1:
#465000
1!
1W
1X
0:
#470000
0!
0W
0X
1:
#475000
1!
1W
1X
0:
#480000
0!
0W
0X
1:
#485000
1!
1W
1X
0:
#490000
0!
0W
0X
1:
#495000
1!
1W
1X
0:
#500000
0!
0W
0X
1:
#505000
1!
1W
1X
0:
#510000
0!
0W
0X
1:
#515000
1!
1W
1X
0:
#520000
0!
0W
0X
1:
#525000
1!
1W
1X
0:
#530000
0!
0W
0X
1:
#535000
1!
1W
1X
0:
#540000
0!
0W
0X
1:
#545000
1!
1W
1X
0:
#550000
0!
0W
0X
1:
#555000
1!
1W
1X
0:
#560000
0!
0W
0X
1:
#565000
1!
1W
1X
0:
#570000
0!
0W
0X
1:
#575000
1!
1W
1X
0:
#580000
0!
0W
0X
1:
#585000
1!
1W
1X
0:
#590000
0!
0W
0X
1:
#595000
1!
1W
1X
0:
#600000
0!
0W
0X
1:
#605000
1!
1W
1X
0:
#610000
0!
0W
0X
1:
#615000
1!
1W
1X
0:
#620000
0!
0W
0X
1:
#625000
1!
1W
1X
0:
#630000
0!
0W
0X
1:
#635000
1!
1W
1X
0:
#640000
0!
0W
0X
1:
#645000
1!
1W
1X
0:
#650000
0!
0W
0X
1:
#655000
1!
1W
1X
0:
#660000
0!
0W
0X
1:
#665000
1!
1W
1X
0:
#670000
0!
0W
0X
1:
#675000
1!
1W
1X
0:
#680000
0!
0W
0X
1:
#685000
1!
1W
1X
0:
#690000
0!
0W
0X
1:
#695000
1!
1W
1X
0:
#700000
0!
0W
0X
1:
#705000
1!
1W
1X
0:
#710000
0!
0W
0X
1:
#715000
1!
1W
1X
0:
#720000
0!
0W
0X
1:
#725000
1!
1W
1X
0:
#730000
0!
0W
0X
1:
#735000
1!
1W
1X
0:
#740000
0!
0W
0X
1:
#745000
1!
1W
1X
0:
#750000
0!
0W
0X
1:
#755000
1!
1W
1X
0:
#760000
0!
0W
0X
1:
#765000
1!
1W
1X
0:
#770000
0!
0W
0X
1:
#775000
1!
1W
1X
0:
#780000
0!
0W
0X
1:
#785000
1!
1W
1X
0:
#790000
0!
0W
0X
1:
#795000
1!
1W
1X
0:
#800000
0!
0W
0X
1:
#805000
1!
1W
1X
0:
#810000
0!
0W
0X
1:
#815000
1!
1W
1X
0:
#820000
0!
0W
0X
1:
#825000
1!
1W
1X
0:
#830000
0!
0W
0X
1:
#835000
1!
1W
1X
0:
#840000
0!
0W
0X
1:
#845000
1!
1W
1X
0:
#850000
0!
0W
0X
1:
#855000
1!
1W
1X
0:
#860000
0!
0W
0X
1:
#865000
1!
1W
1X
0:
#870000
0!
0W
0X
1:
#875000
1!
1W
1X
0:
#880000
0!
0W
0X
1:
#885000
1!
1W
1X
0:
#890000
0!
0W
0X
1:
#895000
1!
1W
1X
0:
#900000
0!
0W
0X
1:
#905000
1!
1W
1X
0:
#910000
0!
0W
0X
1:
#915000
1!
1W
1X
0:
#920000
0!
0W
0X
1:
#925000
1!
1W
1X
0:
#930000
0!
0W
0X
1:
#935000
1!
1W
1X
0:
#940000
0!
0W
0X
1:
#945000
1!
1W
1X
0:
#950000
0!
0W
0X
1:
#955000
1!
1W
1X
0:
#960000
0!
0W
0X
1:
#965000
1!
1W
1X
0:
#970000
0!
0W
0X
1:
#975000
1!
1W
1X
0:
#980000
0!
0W
0X
1:
#985000
1!
1W
1X
0:
#990000
0!
0W
0X
1:
#995000
1!
1W
1X
0:
